^D:\ANGUS\WORKSPACE\PERSONAL\CS344\PS1\GRAYSCALE\GRAYSCALE\X64\DEBUG\COMPARE.OBJ|D:\ANGUS\WORKSPACE\PERSONAL\CS344\PS1\GRAYSCALE\GRAYSCALE\X64\DEBUG\MAIN.OBJ|D:\ANGUS\WORKSPACE\PERSONAL\CS344\PS1\GRAYSCALE\GRAYSCALE\X64\DEBUG\STUDENT_FUNC.CU.OBJ
C:\PROGRAM FILES\NVIDIA GPU COMPUTING TOOLKIT\CUDA\V7.5\LIB\X64\CUDART.LIB
C:\PROGRAM FILES (X86)\WINDOWS KITS\8.1\LIB\WINV6.3\UM\X64\KERNEL32.LIB
C:\PROGRAM FILES (X86)\WINDOWS KITS\8.1\LIB\WINV6.3\UM\X64\USER32.LIB
C:\PROGRAM FILES (X86)\WINDOWS KITS\8.1\LIB\WINV6.3\UM\X64\GDI32.LIB
C:\PROGRAM FILES (X86)\WINDOWS KITS\8.1\LIB\WINV6.3\UM\X64\WINSPOOL.LIB
C:\PROGRAM FILES (X86)\WINDOWS KITS\8.1\LIB\WINV6.3\UM\X64\COMDLG32.LIB
C:\PROGRAM FILES (X86)\WINDOWS KITS\8.1\LIB\WINV6.3\UM\X64\ADVAPI32.LIB
C:\PROGRAM FILES (X86)\WINDOWS KITS\8.1\LIB\WINV6.3\UM\X64\SHELL32.LIB
C:\PROGRAM FILES (X86)\WINDOWS KITS\8.1\LIB\WINV6.3\UM\X64\OLE32.LIB
C:\PROGRAM FILES (X86)\WINDOWS KITS\8.1\LIB\WINV6.3\UM\X64\OLEAUT32.LIB
C:\PROGRAM FILES (X86)\WINDOWS KITS\8.1\LIB\WINV6.3\UM\X64\UUID.LIB
C:\PROGRAM FILES (X86)\WINDOWS KITS\8.1\LIB\WINV6.3\UM\X64\ODBC32.LIB
C:\PROGRAM FILES (X86)\WINDOWS KITS\8.1\LIB\WINV6.3\UM\X64\ODBCCP32.LIB
C:\PROGRAM FILES\OPENCV\BUILD\X64\VC12\LIB\OPENCV_CALIB3D2413D.LIB
C:\PROGRAM FILES\OPENCV\BUILD\X64\VC12\LIB\OPENCV_CONTRIB2413D.LIB
C:\PROGRAM FILES\OPENCV\BUILD\X64\VC12\LIB\OPENCV_CORE2413D.LIB
C:\PROGRAM FILES\OPENCV\BUILD\X64\VC12\LIB\OPENCV_FEATURES2D2413D.LIB
C:\PROGRAM FILES\OPENCV\BUILD\X64\VC12\LIB\OPENCV_FLANN2413D.LIB
C:\PROGRAM FILES\OPENCV\BUILD\X64\VC12\LIB\OPENCV_GPU2413D.LIB
C:\PROGRAM FILES\OPENCV\BUILD\X64\VC12\LIB\OPENCV_HIGHGUI2413D.LIB
C:\PROGRAM FILES\OPENCV\BUILD\X64\VC12\LIB\OPENCV_IMGPROC2413D.LIB
C:\PROGRAM FILES\OPENCV\BUILD\X64\VC12\LIB\OPENCV_LEGACY2413D.LIB
C:\PROGRAM FILES\OPENCV\BUILD\X64\VC12\LIB\OPENCV_ML2413D.LIB
C:\PROGRAM FILES\OPENCV\BUILD\X64\VC12\LIB\OPENCV_NONFREE2413D.LIB
C:\PROGRAM FILES\OPENCV\BUILD\X64\VC12\LIB\OPENCV_OBJDETECT2413D.LIB
C:\PROGRAM FILES\OPENCV\BUILD\X64\VC12\LIB\OPENCV_OCL2413D.LIB
C:\PROGRAM FILES\OPENCV\BUILD\X64\VC12\LIB\OPENCV_PHOTO2413D.LIB
C:\PROGRAM FILES\OPENCV\BUILD\X64\VC12\LIB\OPENCV_STITCHING2413D.LIB
C:\PROGRAM FILES\OPENCV\BUILD\X64\VC12\LIB\OPENCV_SUPERRES2413D.LIB
C:\PROGRAM FILES\OPENCV\BUILD\X64\VC12\LIB\OPENCV_TS2413D.LIB
C:\PROGRAM FILES\OPENCV\BUILD\X64\VC12\LIB\OPENCV_VIDEO2413D.LIB
C:\PROGRAM FILES\OPENCV\BUILD\X64\VC12\LIB\OPENCV_VIDEOSTAB2413D.LIB
D:\ANGUS\WORKSPACE\PERSONAL\CS344\PS1\GRAYSCALE\GRAYSCALE\X64\DEBUG\STUDENT_FUNC.CU.OBJ
D:\ANGUS\WORKSPACE\PERSONAL\CS344\PS1\GRAYSCALE\GRAYSCALE\X64\DEBUG\COMPARE.OBJ
D:\ANGUS\WORKSPACE\PERSONAL\CS344\PS1\GRAYSCALE\GRAYSCALE\X64\DEBUG\MAIN.OBJ
C:\WINDOWS\SYSTEM32\TZRES.DLL
C:\WINDOWS\GLOBALIZATION\SORTING\SORTDEFAULT.NLS
C:\PROGRAM FILES (X86)\MICROSOFT VISUAL STUDIO 12.0\VC\LIB\AMD64\MSVCPRTD.LIB
C:\PROGRAM FILES (X86)\MICROSOFT VISUAL STUDIO 12.0\VC\LIB\AMD64\MSVCRTD.LIB
C:\PROGRAM FILES (X86)\MICROSOFT VISUAL STUDIO 12.0\VC\LIB\AMD64\OLDNAMES.LIB
C:\PROGRAM FILES (X86)\MICROSOFT VISUAL STUDIO 12.0\VC\BIN\MSPDBSRV.EXE
