^D:\ANGUS\WORKSPACE\PERSONAL\UDACITY-CUDA\SOLUTIONS\PS6\POISSON-BLENDING\POISSON-BLENDING\LOADSAVEIMAGE.CPP|D:\ANGUS\WORKSPACE\PERSONAL\UDACITY-CUDA\SOLUTIONS\PS6\POISSON-BLENDING\POISSON-BLENDING\REFERENCE_CALC.CPP
D:\ANGUS\WORKSPACE\PERSONAL\UDACITY-CUDA\SOLUTIONS\PS6\POISSON-BLENDING\POISSON-BLENDING\DEBUG\VC120.PDB
D:\ANGUS\WORKSPACE\PERSONAL\UDACITY-CUDA\SOLUTIONS\PS6\POISSON-BLENDING\POISSON-BLENDING\DEBUG\VC120.IDB
D:\ANGUS\WORKSPACE\PERSONAL\UDACITY-CUDA\SOLUTIONS\PS6\POISSON-BLENDING\POISSON-BLENDING\DEBUG\LOADSAVEIMAGE.OBJ
D:\ANGUS\WORKSPACE\PERSONAL\UDACITY-CUDA\SOLUTIONS\PS6\POISSON-BLENDING\POISSON-BLENDING\DEBUG\REFERENCE_CALC.OBJ
^D:\ANGUS\WORKSPACE\PERSONAL\UDACITY-CUDA\SOLUTIONS\PS6\POISSON-BLENDING\POISSON-BLENDING\LOADSAVEIMAGE.CPP
D:\ANGUS\WORKSPACE\PERSONAL\UDACITY-CUDA\SOLUTIONS\PS6\POISSON-BLENDING\POISSON-BLENDING\DEBUG\VC120.PDB
^D:\ANGUS\WORKSPACE\PERSONAL\UDACITY-CUDA\SOLUTIONS\PS6\POISSON-BLENDING\POISSON-BLENDING\REFERENCE_CALC.CPP
D:\ANGUS\WORKSPACE\PERSONAL\UDACITY-CUDA\SOLUTIONS\PS6\POISSON-BLENDING\POISSON-BLENDING\DEBUG\VC120.PDB
^D:\ANGUS\WORKSPACE\PERSONAL\UDACITY-CUDA\SOLUTIONS\PS6\POISSON-BLENDING\POISSON-BLENDING\MAIN.CPP
D:\ANGUS\WORKSPACE\PERSONAL\UDACITY-CUDA\SOLUTIONS\PS6\POISSON-BLENDING\POISSON-BLENDING\DEBUG\VC120.PDB
D:\ANGUS\WORKSPACE\PERSONAL\UDACITY-CUDA\SOLUTIONS\PS6\POISSON-BLENDING\POISSON-BLENDING\DEBUG\VC120.IDB
D:\ANGUS\WORKSPACE\PERSONAL\UDACITY-CUDA\SOLUTIONS\PS6\POISSON-BLENDING\POISSON-BLENDING\DEBUG\MAIN.OBJ
^D:\ANGUS\WORKSPACE\PERSONAL\UDACITY-CUDA\SOLUTIONS\PS6\POISSON-BLENDING\POISSON-BLENDING\COMPARE.CPP
D:\ANGUS\WORKSPACE\PERSONAL\UDACITY-CUDA\SOLUTIONS\PS6\POISSON-BLENDING\POISSON-BLENDING\DEBUG\VC120.PDB
D:\ANGUS\WORKSPACE\PERSONAL\UDACITY-CUDA\SOLUTIONS\PS6\POISSON-BLENDING\POISSON-BLENDING\DEBUG\VC120.IDB
D:\ANGUS\WORKSPACE\PERSONAL\UDACITY-CUDA\SOLUTIONS\PS6\POISSON-BLENDING\POISSON-BLENDING\DEBUG\COMPARE.OBJ
