^D:\WORKSPACE\UDACITY-CUDA\SOLUTIONS\PS5\HISTOGRAM\HISTOGRAM\DEBUG\MAIN.CU.OBJ|D:\WORKSPACE\UDACITY-CUDA\SOLUTIONS\PS5\HISTOGRAM\HISTOGRAM\DEBUG\REFERENCE_CALC.OBJ|D:\WORKSPACE\UDACITY-CUDA\SOLUTIONS\PS5\HISTOGRAM\HISTOGRAM\DEBUG\STUDENT.CU.OBJ
D:\WORKSPACE\UDACITY-CUDA\SOLUTIONS\PS5\HISTOGRAM\DEBUG\HISTOGRAM.ILK
D:\WORKSPACE\UDACITY-CUDA\SOLUTIONS\PS5\HISTOGRAM\DEBUG\HISTOGRAM.EXE
D:\WORKSPACE\UDACITY-CUDA\SOLUTIONS\PS5\HISTOGRAM\DEBUG\HISTOGRAM.PDB
