^D:\WORKSPACE\UDACITY-CUDA\SOLUTIONS\PS5\HISTOGRAM\HISTOGRAM\DEBUG\MAIN.CU.OBJ|D:\WORKSPACE\UDACITY-CUDA\SOLUTIONS\PS5\HISTOGRAM\HISTOGRAM\DEBUG\REFERENCE_CALC.OBJ|D:\WORKSPACE\UDACITY-CUDA\SOLUTIONS\PS5\HISTOGRAM\HISTOGRAM\DEBUG\STUDENT.CU.OBJ
C:\PROGRAM FILES\NVIDIA GPU COMPUTING TOOLKIT\CUDA\V7.5\LIB\WIN32\CUDART.LIB
C:\PROGRAM FILES (X86)\WINDOWS KITS\8.1\LIB\WINV6.3\UM\X86\KERNEL32.LIB
C:\PROGRAM FILES (X86)\WINDOWS KITS\8.1\LIB\WINV6.3\UM\X86\USER32.LIB
C:\PROGRAM FILES (X86)\WINDOWS KITS\8.1\LIB\WINV6.3\UM\X86\GDI32.LIB
C:\PROGRAM FILES (X86)\WINDOWS KITS\8.1\LIB\WINV6.3\UM\X86\WINSPOOL.LIB
C:\PROGRAM FILES (X86)\WINDOWS KITS\8.1\LIB\WINV6.3\UM\X86\COMDLG32.LIB
C:\PROGRAM FILES (X86)\WINDOWS KITS\8.1\LIB\WINV6.3\UM\X86\ADVAPI32.LIB
C:\PROGRAM FILES (X86)\WINDOWS KITS\8.1\LIB\WINV6.3\UM\X86\SHELL32.LIB
C:\PROGRAM FILES (X86)\WINDOWS KITS\8.1\LIB\WINV6.3\UM\X86\OLE32.LIB
C:\PROGRAM FILES (X86)\WINDOWS KITS\8.1\LIB\WINV6.3\UM\X86\OLEAUT32.LIB
C:\PROGRAM FILES (X86)\WINDOWS KITS\8.1\LIB\WINV6.3\UM\X86\UUID.LIB
C:\PROGRAM FILES (X86)\WINDOWS KITS\8.1\LIB\WINV6.3\UM\X86\ODBC32.LIB
C:\PROGRAM FILES (X86)\WINDOWS KITS\8.1\LIB\WINV6.3\UM\X86\ODBCCP32.LIB
C:\OPENCV\BUILD\X64\VC12\LIB\OPENCV_CALIB3D2413D.LIB
C:\OPENCV\BUILD\X64\VC12\LIB\OPENCV_CONTRIB2413D.LIB
C:\OPENCV\BUILD\X64\VC12\LIB\OPENCV_CORE2413D.LIB
C:\OPENCV\BUILD\X64\VC12\LIB\OPENCV_FEATURES2D2413D.LIB
C:\OPENCV\BUILD\X64\VC12\LIB\OPENCV_FLANN2413D.LIB
C:\OPENCV\BUILD\X64\VC12\LIB\OPENCV_GPU2413D.LIB
C:\OPENCV\BUILD\X64\VC12\LIB\OPENCV_HIGHGUI2413D.LIB
C:\OPENCV\BUILD\X64\VC12\LIB\OPENCV_IMGPROC2413D.LIB
C:\OPENCV\BUILD\X64\VC12\LIB\OPENCV_LEGACY2413D.LIB
C:\OPENCV\BUILD\X64\VC12\LIB\OPENCV_ML2413D.LIB
C:\OPENCV\BUILD\X64\VC12\LIB\OPENCV_NONFREE2413D.LIB
C:\OPENCV\BUILD\X64\VC12\LIB\OPENCV_OBJDETECT2413D.LIB
C:\OPENCV\BUILD\X64\VC12\LIB\OPENCV_OCL2413D.LIB
C:\OPENCV\BUILD\X64\VC12\LIB\OPENCV_PHOTO2413D.LIB
C:\OPENCV\BUILD\X64\VC12\LIB\OPENCV_STITCHING2413D.LIB
C:\OPENCV\BUILD\X64\VC12\LIB\OPENCV_SUPERRES2413D.LIB
C:\OPENCV\BUILD\X64\VC12\LIB\OPENCV_TS2413D.LIB
C:\OPENCV\BUILD\X64\VC12\LIB\OPENCV_VIDEO2413D.LIB
C:\OPENCV\BUILD\X64\VC12\LIB\OPENCV_VIDEOSTAB2413D.LIB
D:\WORKSPACE\UDACITY-CUDA\SOLUTIONS\PS5\HISTOGRAM\HISTOGRAM\DEBUG\MAIN.CU.OBJ
D:\WORKSPACE\UDACITY-CUDA\SOLUTIONS\PS5\HISTOGRAM\HISTOGRAM\DEBUG\STUDENT.CU.OBJ
D:\WORKSPACE\UDACITY-CUDA\SOLUTIONS\PS5\HISTOGRAM\HISTOGRAM\DEBUG\REFERENCE_CALC.OBJ
C:\WINDOWS\SYSTEM32\TZRES.DLL
C:\WINDOWS\GLOBALIZATION\SORTING\SORTDEFAULT.NLS
C:\PROGRAM FILES (X86)\MICROSOFT VISUAL STUDIO 12.0\VC\LIB\MSVCPRTD.LIB
C:\PROGRAM FILES (X86)\MICROSOFT VISUAL STUDIO 12.0\VC\LIB\MSVCRTD.LIB
C:\PROGRAM FILES (X86)\MICROSOFT VISUAL STUDIO 12.0\VC\LIB\OLDNAMES.LIB
