^D:\ANGUS\WORKSPACE\PERSONAL\UDACITY-CUDA\SOLUTIONS\PS5\HISTOGRAM\HISTOGRAM\DEBUG\MAIN.CU.OBJ|D:\ANGUS\WORKSPACE\PERSONAL\UDACITY-CUDA\SOLUTIONS\PS5\HISTOGRAM\HISTOGRAM\DEBUG\REFERENCE_CALC.OBJ|D:\ANGUS\WORKSPACE\PERSONAL\UDACITY-CUDA\SOLUTIONS\PS5\HISTOGRAM\HISTOGRAM\DEBUG\STUDENT.CU.OBJ
/OUT:"D:\ANGUS\WORKSPACE\PERSONAL\UDACITY-CUDA\SOLUTIONS\PS5\HISTOGRAM\DEBUG\HISTOGRAM.EXE" /INCREMENTAL /NOLOGO /LIBPATH:"C:\Program Files\NVIDIA GPU Computing Toolkit\CUDA\v7.5\lib\Win32" /LIBPATH:"C:\Program Files\NVIDIA GPU Computing Toolkit\CUDA\v7.5\lib\Win32" /LIBPATH:"C:\Program Files\opencv\build/x64/vc12/lib" cudart.lib kernel32.lib user32.lib gdi32.lib winspool.lib comdlg32.lib advapi32.lib shell32.lib ole32.lib oleaut32.lib uuid.lib odbc32.lib odbccp32.lib opencv_calib3d2413d.lib opencv_contrib2413d.lib opencv_core2413d.lib opencv_features2d2413d.lib opencv_flann2413d.lib opencv_gpu2413d.lib opencv_highgui2413d.lib opencv_imgproc2413d.lib opencv_legacy2413d.lib opencv_ml2413d.lib opencv_nonfree2413d.lib opencv_objdetect2413d.lib opencv_ocl2413d.lib opencv_photo2413d.lib opencv_stitching2413d.lib opencv_superres2413d.lib opencv_ts2413d.lib opencv_video2413d.lib opencv_videostab2413d.lib kernel32.lib user32.lib gdi32.lib winspool.lib comdlg32.lib advapi32.lib shell32.lib ole32.lib oleaut32.lib uuid.lib odbc32.lib odbccp32.lib /MANIFEST /MANIFESTUAC:"level='asInvoker' uiAccess='false'" /manifest:embed /DEBUG /PDB:"D:\ANGUS\WORKSPACE\PERSONAL\UDACITY-CUDA\SOLUTIONS\PS5\HISTOGRAM\DEBUG\HISTOGRAM.PDB" /SUBSYSTEM:CONSOLE /TLBID:1 /DYNAMICBASE /NXCOMPAT /IMPLIB:"D:\ANGUS\WORKSPACE\PERSONAL\UDACITY-CUDA\SOLUTIONS\PS5\HISTOGRAM\DEBUG\HISTOGRAM.LIB" /MACHINE:X86 DEBUG\MAIN.CU.OBJDEBUG\STUDENT.CU.OBJDEBUG\REFERENCE_CALC.OBJ
^D:\WORKSPACE\UDACITY-CUDA\SOLUTIONS\PS5\HISTOGRAM\HISTOGRAM\DEBUG\MAIN.CU.OBJ|D:\WORKSPACE\UDACITY-CUDA\SOLUTIONS\PS5\HISTOGRAM\HISTOGRAM\DEBUG\REFERENCE_CALC.OBJ|D:\WORKSPACE\UDACITY-CUDA\SOLUTIONS\PS5\HISTOGRAM\HISTOGRAM\DEBUG\STUDENT.CU.OBJ
/OUT:"D:\WORKSPACE\UDACITY-CUDA\SOLUTIONS\PS5\HISTOGRAM\DEBUG\HISTOGRAM.EXE" /INCREMENTAL /NOLOGO /LIBPATH:"C:\Program Files\NVIDIA GPU Computing Toolkit\CUDA\v7.5\lib\Win32" /LIBPATH:"C:\Program Files\NVIDIA GPU Computing Toolkit\CUDA\v7.5\lib\Win32" /LIBPATH:C:\opencv\build/x64/vc12/lib cudart.lib kernel32.lib user32.lib gdi32.lib winspool.lib comdlg32.lib advapi32.lib shell32.lib ole32.lib oleaut32.lib uuid.lib odbc32.lib odbccp32.lib opencv_calib3d2413d.lib opencv_contrib2413d.lib opencv_core2413d.lib opencv_features2d2413d.lib opencv_flann2413d.lib opencv_gpu2413d.lib opencv_highgui2413d.lib opencv_imgproc2413d.lib opencv_legacy2413d.lib opencv_ml2413d.lib opencv_nonfree2413d.lib opencv_objdetect2413d.lib opencv_ocl2413d.lib opencv_photo2413d.lib opencv_stitching2413d.lib opencv_superres2413d.lib opencv_ts2413d.lib opencv_video2413d.lib opencv_videostab2413d.lib kernel32.lib user32.lib gdi32.lib winspool.lib comdlg32.lib advapi32.lib shell32.lib ole32.lib oleaut32.lib uuid.lib odbc32.lib odbccp32.lib /MANIFEST /MANIFESTUAC:"level='asInvoker' uiAccess='false'" /manifest:embed /DEBUG /PDB:"D:\WORKSPACE\UDACITY-CUDA\SOLUTIONS\PS5\HISTOGRAM\DEBUG\HISTOGRAM.PDB" /SUBSYSTEM:CONSOLE /TLBID:1 /DYNAMICBASE /NXCOMPAT /IMPLIB:"D:\WORKSPACE\UDACITY-CUDA\SOLUTIONS\PS5\HISTOGRAM\DEBUG\HISTOGRAM.LIB" /MACHINE:X86 DEBUG\MAIN.CU.OBJDEBUG\STUDENT.CU.OBJDEBUG\REFERENCE_CALC.OBJ
