﻿Build started 8/16/2016 2:46:10 PM.
     1>Project "D:\Angus\Workspace\personal\cs344\ps2\blur\blur\blur.vcxproj" on node 2 (Build target(s)).
     1>AddCudaCompileDeps:
         C:\Program Files (x86)\Microsoft Visual Studio 12.0\VC\bin\x86_amd64\cl.exe /E /nologo /showIncludes /TP /D__CUDACC__ /DWIN32 /DWIN64 /D_DEBUG /D_CONSOLE /D_MBCS /I"C:\Program Files\NVIDIA GPU Computing Toolkit\CUDA\v7.5\include" /I"C:\Program Files\NVIDIA GPU Computing Toolkit\CUDA\v7.5\include" /I"C:\Program Files\opencv\build/include" /I"C:\Program Files\NVIDIA GPU Computing Toolkit\CUDA\v7.5\bin" /I"C:\Program Files\NVIDIA GPU Computing Toolkit\CUDA\v7.5\include" /I. /FIcuda_runtime.h /c D:\Angus\Workspace\personal\cs344\ps2\blur\blur\student_func.cu 
       CudaBuild:
         Compiling CUDA source file student_func.cu...
         cmd.exe /C "C:\Users\TitanTest\AppData\Local\Temp\tmp443d0d505dd64f7ea52c2fb561b37c44.cmd"
         "C:\Program Files\NVIDIA GPU Computing Toolkit\CUDA\v7.5\bin\nvcc.exe" -gencode=arch=compute_20,code=\"sm_20,compute_20\" --use-local-env --cl-version 2013 -ccbin "C:\Program Files (x86)\Microsoft Visual Studio 12.0\VC\bin\x86_amd64"  -I"C:\Program Files\NVIDIA GPU Computing Toolkit\CUDA\v7.5\include" -I"C:\Program Files\NVIDIA GPU Computing Toolkit\CUDA\v7.5\include" -I"C:\Program Files\opencv\build/include" -I"C:\Program Files\NVIDIA GPU Computing Toolkit\CUDA\v7.5\include"  -G   --keep-dir x64\Debug -maxrregcount=0  --machine 64 --compile -cudart static  -g   -DWIN32 -DWIN64 -D_DEBUG -D_CONSOLE -D_MBCS -Xcompiler "/EHsc /W3 /nologo /Od /Zi /RTC1 /MDd " -o x64\Debug\student_func.cu.obj "D:\Angus\Workspace\personal\cs344\ps2\blur\blur\student_func.cu"
         
         D:\Angus\Workspace\personal\cs344\ps2\blur\blur>"C:\Program Files\NVIDIA GPU Computing Toolkit\CUDA\v7.5\bin\nvcc.exe" -gencode=arch=compute_20,code=\"sm_20,compute_20\" --use-local-env --cl-version 2013 -ccbin "C:\Program Files (x86)\Microsoft Visual Studio 12.0\VC\bin\x86_amd64"  -I"C:\Program Files\NVIDIA GPU Computing Toolkit\CUDA\v7.5\include" -I"C:\Program Files\NVIDIA GPU Computing Toolkit\CUDA\v7.5\include" -I"C:\Program Files\opencv\build/include" -I"C:\Program Files\NVIDIA GPU Computing Toolkit\CUDA\v7.5\include"  -G   --keep-dir x64\Debug -maxrregcount=0  --machine 64 --compile -cudart static  -g   -DWIN32 -DWIN64 -D_DEBUG -D_CONSOLE -D_MBCS -Xcompiler "/EHsc /W3 /nologo /Od /Zi /RTC1 /MDd " -o x64\Debug\student_func.cu.obj "D:\Angus\Workspace\personal\cs344\ps2\blur\blur\student_func.cu" 
     1>D:/Angus/Workspace/personal/cs344/ps2/blur/blur/student_func.cu(213): warning : variable "filterOnImg_i" was declared but never referenced
     1>D:/Angus/Workspace/personal/cs344/ps2/blur/blur/student_func.cu(214): warning : variable "filterOnImg_j" was declared but never referenced
     1>D:/Angus/Workspace/personal/cs344/ps2/blur/blur/student_func.cu(257): warning : pointless comparison of unsigned integer with zero
     1>D:/Angus/Workspace/personal/cs344/ps2/blur/blur/student_func.cu(257): warning : pointless comparison of unsigned integer with zero
     1>D:/Angus/Workspace/personal/cs344/ps2/blur/blur/student_func.cu(213): warning : variable "filterOnImg_i" was declared but never referenced
     1>D:/Angus/Workspace/personal/cs344/ps2/blur/blur/student_func.cu(214): warning : variable "filterOnImg_j" was declared but never referenced
     1>D:/Angus/Workspace/personal/cs344/ps2/blur/blur/student_func.cu(257): warning : pointless comparison of unsigned integer with zero
     1>D:/Angus/Workspace/personal/cs344/ps2/blur/blur/student_func.cu(257): warning : pointless comparison of unsigned integer with zero
         student_func.cu
     1>D:/Angus/Workspace/personal/cs344/ps2/blur/blur/student_func.cu(372): warning C4267: 'initializing' : conversion from 'size_t' to 'int', possible loss of data
     1>D:/Angus/Workspace/personal/cs344/ps2/blur/blur/student_func.cu(373): warning C4267: 'initializing' : conversion from 'size_t' to 'int', possible loss of data
     1>D:/Angus/Workspace/personal/cs344/ps2/blur/blur/student_func.cu(377): warning C4267: 'argument' : conversion from 'size_t' to 'int', possible loss of data
     1>D:/Angus/Workspace/personal/cs344/ps2/blur/blur/student_func.cu(390): warning C4267: 'argument' : conversion from 'size_t' to 'int', possible loss of data
     1>D:/Angus/Workspace/personal/cs344/ps2/blur/blur/student_func.cu(396): warning C4267: 'argument' : conversion from 'size_t' to 'int', possible loss of data
     1>D:/Angus/Workspace/personal/cs344/ps2/blur/blur/student_func.cu(402): warning C4267: 'argument' : conversion from 'size_t' to 'int', possible loss of data
     1>D:/Angus/Workspace/personal/cs344/ps2/blur/blur/student_func.cu(417): warning C4267: 'argument' : conversion from 'size_t' to 'int', possible loss of data
       Link:
         C:\Program Files (x86)\Microsoft Visual Studio 12.0\VC\bin\x86_amd64\link.exe /ERRORREPORT:PROMPT /OUT:"D:\Angus\Workspace\personal\cs344\ps2\blur\x64\Debug\blur.exe" /INCREMENTAL /NOLOGO /LIBPATH:"C:\Program Files\NVIDIA GPU Computing Toolkit\CUDA\v7.5\lib\x64" /LIBPATH:"C:\Program Files\NVIDIA GPU Computing Toolkit\CUDA\v7.5\lib\x64" /LIBPATH:"C:\Program Files\opencv\build/x64/vc12/lib" cudart.lib kernel32.lib user32.lib gdi32.lib winspool.lib comdlg32.lib advapi32.lib shell32.lib ole32.lib oleaut32.lib uuid.lib odbc32.lib odbccp32.lib opencv_calib3d2413d.lib opencv_contrib2413d.lib opencv_core2413d.lib opencv_features2d2413d.lib opencv_flann2413d.lib opencv_gpu2413d.lib opencv_highgui2413d.lib opencv_imgproc2413d.lib opencv_legacy2413d.lib opencv_ml2413d.lib opencv_nonfree2413d.lib opencv_objdetect2413d.lib opencv_ocl2413d.lib opencv_photo2413d.lib opencv_stitching2413d.lib opencv_superres2413d.lib opencv_ts2413d.lib opencv_video2413d.lib opencv_videostab2413d.lib kernel32.lib user32.lib gdi32.lib winspool.lib comdlg32.lib advapi32.lib shell32.lib ole32.lib oleaut32.lib uuid.lib odbc32.lib odbccp32.lib /MANIFEST /MANIFESTUAC:"level='asInvoker' uiAccess='false'" /manifest:embed /DEBUG /PDB:"D:\Angus\Workspace\personal\cs344\ps2\blur\x64\Debug\blur.pdb" /SUBSYSTEM:CONSOLE /TLBID:1 /DYNAMICBASE /NXCOMPAT /IMPLIB:"D:\Angus\Workspace\personal\cs344\ps2\blur\x64\Debug\blur.lib" /MACHINE:X64 x64\Debug\student_func.cu.obj
         x64\Debug\compare.obj
         x64\Debug\main.obj
         x64\Debug\reference_calc.obj
         blur.vcxproj -> D:\Angus\Workspace\personal\cs344\ps2\blur\x64\Debug\blur.exe
       PostBuildEvent:
         echo copy "C:\Program Files\NVIDIA GPU Computing Toolkit\CUDA\v7.5\bin\cudart*.dll" "D:\Angus\Workspace\personal\cs344\ps2\blur\x64\Debug\"
         copy "C:\Program Files\NVIDIA GPU Computing Toolkit\CUDA\v7.5\bin\cudart*.dll" "D:\Angus\Workspace\personal\cs344\ps2\blur\x64\Debug\"
         :VCEnd
         copy "C:\Program Files\NVIDIA GPU Computing Toolkit\CUDA\v7.5\bin\cudart*.dll" "D:\Angus\Workspace\personal\cs344\ps2\blur\x64\Debug\"
         C:\Program Files\NVIDIA GPU Computing Toolkit\CUDA\v7.5\bin\cudart32_75.dll
         C:\Program Files\NVIDIA GPU Computing Toolkit\CUDA\v7.5\bin\cudart64_75.dll
                 2 file(s) copied.
     1>Done Building Project "D:\Angus\Workspace\personal\cs344\ps2\blur\blur\blur.vcxproj" (Build target(s)).

Build succeeded.

Time Elapsed 00:00:06.27
