^D:\ANGUS\WORKSPACE\PERSONAL\UDACITY-CUDA\SOLUTIONS\PS6\POISSON-BLENDING\POISSON-BLENDING\COMPARE.CPP
/c /I"C:\Program Files\NVIDIA GPU Computing Toolkit\CUDA\v7.5\include" /I"C:\Program Files\NVIDIA GPU Computing Toolkit\CUDA\v7.5\include" /I"C:\Program Files\opencv\build/include" /Zi /nologo /W3 /WX- /Od /D WIN32 /D WIN64 /D _DEBUG /D _CONSOLE /D _MBCS /Gm /EHsc /RTC1 /MDd /GS /fp:precise /Zc:wchar_t /Zc:forScope /Fo"X64\DEBUG\\" /Fd"X64\DEBUG\VC120.PDB" /Gd /TP D:\ANGUS\WORKSPACE\PERSONAL\UDACITY-CUDA\SOLUTIONS\PS6\POISSON-BLENDING\POISSON-BLENDING\COMPARE.CPP
^D:\ANGUS\WORKSPACE\PERSONAL\UDACITY-CUDA\SOLUTIONS\PS6\POISSON-BLENDING\POISSON-BLENDING\LOADSAVEIMAGE.CPP
/c /I"C:\Program Files\NVIDIA GPU Computing Toolkit\CUDA\v7.5\include" /I"C:\Program Files\NVIDIA GPU Computing Toolkit\CUDA\v7.5\include" /I"C:\Program Files\opencv\build/include" /Zi /nologo /W3 /WX- /Od /D WIN32 /D WIN64 /D _DEBUG /D _CONSOLE /D _MBCS /Gm /EHsc /RTC1 /MDd /GS /fp:precise /Zc:wchar_t /Zc:forScope /Fo"X64\DEBUG\\" /Fd"X64\DEBUG\VC120.PDB" /Gd /TP D:\ANGUS\WORKSPACE\PERSONAL\UDACITY-CUDA\SOLUTIONS\PS6\POISSON-BLENDING\POISSON-BLENDING\LOADSAVEIMAGE.CPP
^D:\ANGUS\WORKSPACE\PERSONAL\UDACITY-CUDA\SOLUTIONS\PS6\POISSON-BLENDING\POISSON-BLENDING\REFERENCE_CALC.CPP
/c /I"C:\Program Files\NVIDIA GPU Computing Toolkit\CUDA\v7.5\include" /I"C:\Program Files\NVIDIA GPU Computing Toolkit\CUDA\v7.5\include" /I"C:\Program Files\opencv\build/include" /Zi /nologo /W3 /WX- /Od /D WIN32 /D WIN64 /D _DEBUG /D _CONSOLE /D _MBCS /Gm /EHsc /RTC1 /MDd /GS /fp:precise /Zc:wchar_t /Zc:forScope /Fo"X64\DEBUG\\" /Fd"X64\DEBUG\VC120.PDB" /Gd /TP D:\ANGUS\WORKSPACE\PERSONAL\UDACITY-CUDA\SOLUTIONS\PS6\POISSON-BLENDING\POISSON-BLENDING\REFERENCE_CALC.CPP
^D:\ANGUS\WORKSPACE\PERSONAL\UDACITY-CUDA\SOLUTIONS\PS6\POISSON-BLENDING\POISSON-BLENDING\MAIN.CPP
/c /I"C:\Program Files\NVIDIA GPU Computing Toolkit\CUDA\v7.5\include" /I"C:\Program Files\NVIDIA GPU Computing Toolkit\CUDA\v7.5\include" /I"C:\Program Files\opencv\build/include" /Zi /nologo /W3 /WX- /Od /D WIN32 /D WIN64 /D _DEBUG /D _CONSOLE /D _MBCS /Gm /EHsc /RTC1 /MDd /GS /fp:precise /Zc:wchar_t /Zc:forScope /Fo"X64\DEBUG\\" /Fd"X64\DEBUG\VC120.PDB" /Gd /TP D:\ANGUS\WORKSPACE\PERSONAL\UDACITY-CUDA\SOLUTIONS\PS6\POISSON-BLENDING\POISSON-BLENDING\MAIN.CPP
^D:\WORKSPACE\UDACITY-CUDA\SOLUTIONS\PS6\POISSON-BLENDING\POISSON-BLENDING\COMPARE.CPP
/c /I"C:\Program Files\NVIDIA GPU Computing Toolkit\CUDA\v7.5\include" /I"C:\Program Files\NVIDIA GPU Computing Toolkit\CUDA\v7.5\include" /IC:\opencv\build/include /Zi /nologo /W3 /WX- /Od /D WIN32 /D WIN64 /D _DEBUG /D _CONSOLE /D _MBCS /Gm /EHsc /RTC1 /MDd /GS /fp:precise /Zc:wchar_t /Zc:forScope /Fo"X64\DEBUG\\" /Fd"X64\DEBUG\VC120.PDB" /Gd /TP D:\WORKSPACE\UDACITY-CUDA\SOLUTIONS\PS6\POISSON-BLENDING\POISSON-BLENDING\COMPARE.CPP
^D:\WORKSPACE\UDACITY-CUDA\SOLUTIONS\PS6\POISSON-BLENDING\POISSON-BLENDING\LOADSAVEIMAGE.CPP
/c /I"C:\Program Files\NVIDIA GPU Computing Toolkit\CUDA\v7.5\include" /I"C:\Program Files\NVIDIA GPU Computing Toolkit\CUDA\v7.5\include" /IC:\opencv\build/include /Zi /nologo /W3 /WX- /Od /D WIN32 /D WIN64 /D _DEBUG /D _CONSOLE /D _MBCS /Gm /EHsc /RTC1 /MDd /GS /fp:precise /Zc:wchar_t /Zc:forScope /Fo"X64\DEBUG\\" /Fd"X64\DEBUG\VC120.PDB" /Gd /TP D:\WORKSPACE\UDACITY-CUDA\SOLUTIONS\PS6\POISSON-BLENDING\POISSON-BLENDING\LOADSAVEIMAGE.CPP
^D:\WORKSPACE\UDACITY-CUDA\SOLUTIONS\PS6\POISSON-BLENDING\POISSON-BLENDING\REFERENCE_CALC.CPP
/c /I"C:\Program Files\NVIDIA GPU Computing Toolkit\CUDA\v7.5\include" /I"C:\Program Files\NVIDIA GPU Computing Toolkit\CUDA\v7.5\include" /IC:\opencv\build/include /Zi /nologo /W3 /WX- /Od /D WIN32 /D WIN64 /D _DEBUG /D _CONSOLE /D _MBCS /Gm /EHsc /RTC1 /MDd /GS /fp:precise /Zc:wchar_t /Zc:forScope /Fo"X64\DEBUG\\" /Fd"X64\DEBUG\VC120.PDB" /Gd /TP D:\WORKSPACE\UDACITY-CUDA\SOLUTIONS\PS6\POISSON-BLENDING\POISSON-BLENDING\REFERENCE_CALC.CPP
^D:\WORKSPACE\UDACITY-CUDA\SOLUTIONS\PS6\POISSON-BLENDING\POISSON-BLENDING\MAIN.CPP
/c /I"C:\Program Files\NVIDIA GPU Computing Toolkit\CUDA\v7.5\include" /I"C:\Program Files\NVIDIA GPU Computing Toolkit\CUDA\v7.5\include" /IC:\opencv\build/include /Zi /nologo /W3 /WX- /Od /D WIN32 /D WIN64 /D _DEBUG /D _CONSOLE /D _MBCS /Gm /EHsc /RTC1 /MDd /GS /fp:precise /Zc:wchar_t /Zc:forScope /Fo"X64\DEBUG\\" /Fd"X64\DEBUG\VC120.PDB" /Gd /TP D:\WORKSPACE\UDACITY-CUDA\SOLUTIONS\PS6\POISSON-BLENDING\POISSON-BLENDING\MAIN.CPP
