^D:\ANGUS\WORKSPACE\PERSONAL\CS344\PS3\TONE-MAPPING\TONE-MAPPING\X64\DEBUG\COMPARE.OBJ|D:\ANGUS\WORKSPACE\PERSONAL\CS344\PS3\TONE-MAPPING\TONE-MAPPING\X64\DEBUG\HW3.CU.OBJ|D:\ANGUS\WORKSPACE\PERSONAL\CS344\PS3\TONE-MAPPING\TONE-MAPPING\X64\DEBUG\LOADSAVEIMAGE.OBJ|D:\ANGUS\WORKSPACE\PERSONAL\CS344\PS3\TONE-MAPPING\TONE-MAPPING\X64\DEBUG\MAIN.OBJ|D:\ANGUS\WORKSPACE\PERSONAL\CS344\PS3\TONE-MAPPING\TONE-MAPPING\X64\DEBUG\STUDENT_FUNC.CU.OBJ
D:\ANGUS\WORKSPACE\PERSONAL\CS344\PS3\TONE-MAPPING\X64\DEBUG\TONE-MAPPING.ILK
D:\ANGUS\WORKSPACE\PERSONAL\CS344\PS3\TONE-MAPPING\X64\DEBUG\TONE-MAPPING.EXE
D:\ANGUS\WORKSPACE\PERSONAL\CS344\PS3\TONE-MAPPING\X64\DEBUG\TONE-MAPPING.PDB
